{
  "response":{
    "status":"ok",
    "userTier":"developer",
    "total":210549,
    "startIndex":1,
    "pageSize":10,
    "currentPage":1,
    "pages":21055,
    "orderBy":"relevance",
    "results":[
      {
        "id":"football/2021/oct/07/football-quiz-international-caps",
        "type":"article",
        "sectionId":"football",
        "sectionName":"Football",
        "webPublicationDate":"2021-10-07T07:00:46Z",
        "webTitle":"Football quiz: international caps",
        "webUrl":"https://www.theguardian.com/football/2021/oct/07/football-quiz-international-caps",
        "apiUrl":"https://content.guardianapis.com/football/2021/oct/07/football-quiz-international-caps",
        "isHosted":false,
        "pillarId":"pillar/sport",
        "pillarName":"Sport"
      },
      {
        "id":"world/2021/nov/20/new-racism-scandal-rocks-english-football",
        "type":"article",
        "sectionId":"world",
        "sectionId":"world",
        "sectionName":"World news",
        "webPublicationDate":"2021-11-20T19:19:46Z",
        "webTitle":"New racism scandal rocks English football",
        "webUrl":"https://www.theguardian.com/world/2021/nov/20/new-racism-scandal-rocks-english-football",
        "apiUrl":"https://content.guardianapis.com/world/2021/nov/20/new-racism-scandal-rocks-english-football",
        "isHosted":false,
        "pillarId":"pillar/news",
        "pillarName":"News"
      },
      {
        "id":"football/2022/jan/18/football-transfer-rumours-manchester-united-everton-newcastle",
        "type":"article",
        "sectionId":"football",
        "sectionName":"Football",
        "webPublicationDate":"2022-01-18T09:34:37Z",
        "webTitle":"Football transfer rumours: John McGinn to Manchester United?",
        "webUrl":"https://www.theguardian.com/football/2022/jan/18/football-transfer-rumours-manchester-united-everton-newcastle",
        "apiUrl":"https://content.guardianapis.com/football/2022/jan/18/football-transfer-rumours-manchester-united-everton-newcastle",
        "isHosted":false,
        "pillarId":"pillar/sport",
        "pillarName":"Sport"
      },
      {
        "id":"football/2021/dec/29/what-will-happen-in-australian-football-in-2022",
        "type":"article",
        "sectionId":"football",
        "sectionName":"Football",
        "webPublicationDate":"2021-12-29T16:30:26Z",
        "webTitle":"What will happen in Australian football in 2022?",
        "webUrl":"https://www.theguardian.com/football/2021/dec/29/what-will-happen-in-australian-football-in-2022",
        "apiUrl":"https://content.guardianapis.com/football/2021/dec/29/what-will-happen-in-australian-football-in-2022",
        "isHosted":false,
        "pillarId":"pillar/sport",
        "pillarName":"Sport"
      },
      {
        "id":"football/2021/oct/27/football-quiz-unexpected-international-call-ups-matty-cash",
        "type":"article",
        "sectionId":"football",
        "sectionName":"Football",
        "webPublicationDate":"2021-10-27T13:19:55Z",
        "webTitle":"Football quiz: unexpected international call-ups",
        "webUrl":"https://www.theguardian.com/football/2021/oct/27/football-quiz-unexpected-international-call-ups-matty-cash",
        "apiUrl":"https://content.guardianapis.com/football/2021/oct/27/football-quiz-unexpected-international-call-ups-matty-cash",
        "isHosted":false,
        "pillarId":"pillar/sport",
        "pillarName":"Sport"
      },
      {
        "id":"football/2022/jan/19/football-transfer-rumours-robin-gosens-and-others-to-newcastle",
        "type":"article",
        "sectionId":"football",
        "sectionName":"Football",
        "webPublicationDate":"2022-01-19T08:53:20Z",
        "webTitle":"Football transfer rumours: Atalanta’s Gosens and Zapata to Newcastle?",
        "webUrl":"https://www.theguardian.com/football/2022/jan/19/football-transfer-rumours-robin-gosens-and-others-to-newcastle",
        "apiUrl":"https://content.guardianapis.com/football/2022/jan/19/football-transfer-rumours-robin-gosens-and-others-to-newcastle",
        "isHosted":false,
        "pillarId":"pillar/sport",
        "pillarName":"Sport"
      },
      {
        "id":"football/2022/jan/14/football-transfer-rumours-aubameyang-to-juventus-tielemans-to-arsenal",
        "type":"article",
        "sectionId":"football",
        "sectionName":"Football",
        "webPublicationDate":"2022-01-14T09:04:43Z",
        "webTitle":"Football transfer rumours: Aubameyang to Juventus? Tielemans to Arsenal?",
        "webUrl":"https://www.theguardian.com/football/2022/jan/14/football-transfer-rumours-aubameyang-to-juventus-tielemans-to-arsenal",
        "apiUrl":"https://content.guardianapis.com/football/2022/jan/14/football-transfer-rumours-aubameyang-to-juventus-tielemans-to-arsenal",
        "isHosted":false,
        "pillarId":"pillar/sport",
        "pillarName":"Sport"
      },
      {
        "id":"football/2022/jan/18/what-constitutes-a-good-game-of-a-leagues-football",
        "type":"article",
        "sectionId":"football",
        "sectionName":"Football",
        "webPublicationDate":"2022-01-18T00:08:58Z",
        "webTitle":"What constitutes a good game of A-Leagues football | Joey Lynch",
        "webUrl":"https://www.theguardian.com/football/2022/jan/18/what-constitutes-a-good-game-of-a-leagues-football",
        "apiUrl":"https://content.guardianapis.com/football/2022/jan/18/what-constitutes-a-good-game-of-a-leagues-football",
        "isHosted":false,
        "pillarId":"pillar/sport",
        "pillarName":"Sport"
      },
      {
        "id":"football/2022/jan/13/football-transfer-rumours-lamptey-and-dembele-to-manchester-united",
        "type":"article",
        "sectionId":"football",
        "sectionName":"Football",
        "webPublicationDate":"2022-01-13T09:24:53Z",
        "webTitle":"Football transfer rumours: Lamptey and Dembélé to Manchester United?",
        "webUrl":"https://www.theguardian.com/football/2022/jan/13/football-transfer-rumours-lamptey-and-dembele-to-manchester-united",
        "apiUrl":"https://content.guardianapis.com/football/2022/jan/13/football-transfer-rumours-lamptey-and-dembele-to-manchester-united",
        "isHosted":false,
        "pillarId":"pillar/sport",
        "pillarName":"Sport"
      },
      {
        "id":"football/2022/jan/17/football-rumours-martinez-rooney-mourinho-manage-everton-keylor-navas-newcastle",
        "type":"article",
        "sectionId":"football",
        "sectionName":"Football",
        "webPublicationDate":"2022-01-17T08:27:48Z",
        "webTitle":"Football rumours: Martínez, Rooney or Mourinho to manage Everton? ",
        "webUrl":"https://www.theguardian.com/football/2022/jan/17/football-rumours-martinez-rooney-mourinho-manage-everton-keylor-navas-newcastle",
        "apiUrl":"https://content.guardianapis.com/football/2022/jan/17/football-rumours-martinez-rooney-mourinho-manage-everton-keylor-navas-newcastle",
        "isHosted":false,
        "pillarId":"pillar/sport",
        "pillarName":"Sport"
      }
    ]
  }
}